<?xml version="1.0" standalone="no"?>
<!DOCTYPE svg PUBLIC "-//W3C//DTD SVG 1.1//EN" "http://www.w3.org/Graphics/SVG/1.1/DTD/svg11.dtd">
<svg xmlns="http://www.w3.org/2000/svg">
<metadata>Copyright (C) 2017 by original authors @ fontello.com</metadata>
<defs>
<font id="font-icon" horiz-adv-x="1000" >
<font-face font-family="font-icon" font-weight="400" font-stretch="normal" units-per-em="1000" ascent="850" descent="-150" />
<missing-glyph horiz-adv-x="1000" />
<glyph glyph-name="star" unicode="&#xe800;" d="M440 790l120-336 320 0-262-196 94-348-272 208-272-208 94 348-262 196 320 0z" horiz-adv-x="880" />

<glyph glyph-name="star-empty" unicode="&#xe801;" d="M880 454l-262-196 94-348-272 208-272-208 94 348-262 196 320 0 120 336 120-336 320 0z m-440-238l150-124-62 178 144 114-176-4-56 202-54-202-176 4 142-114-62-178z" horiz-adv-x="880" />

<glyph glyph-name="calendar" unicode="&#xe802;" d="M781 663h94v-688l-750 0 0 688 156 0v125l-281 0v-938h1000v938h-281v-125l62 0z m-531 0h500v125h-500v-125z m0 125v-63-62h63v125h-63v-63 63h-62v-188h187v250h-187v-62h62z m438 0v-63-62h62v125h-62v-63 63h-63v-188h188v250h-188v-62h63z m-688-375h1000v125h-1000v-125z" horiz-adv-x="1000" />

<glyph glyph-name="fb" unicode="&#xe803;" d="M0 350c0 276 224 500 500 500s500-224 500-500-224-500-500-500-500 224-500 500z m535-277v272h76l10 94h-86l1 46c0 25 2 38 37 38h47v94h-75c-90 0-122-46-122-122v-56h-56v-94h56v-272h112z" horiz-adv-x="1000" />

<glyph glyph-name="filter-clear" unicode="&#xe804;" d="M854 646c17 17 17 42 0 58s-41 17-58 0h0l-75-75-75 75c-17 17-42 17-58 0s-17-41 0-58v0l75-75-75-75c-17-17-17-42 0-58s41-17 58 0l75 75 75-75c17-17 42-17 58 0s17 41 0 58l-75 75 75 75z m-125 204c150 0 271-121 271-271s-121-271-271-271-271 121-271 271 121 271 271 271z m-279-737v-151c0-25-12-45-37-58l-96-46c-4-4-13-8-17-8-4 0-8 0-12 0-5 0-9 0-17 0l4 0h-4 0-13l-8 8c-21 13-29 34-29 54v201l-208 300c-13 20-17 45-5 66l5 4c8 21 29 34 54 34h312c4-29 13-59 25-84h-304l204-291v-196l63 29v167l8 12 117 167c21-21 41-38 66-50l-108-158z" horiz-adv-x="1000" />

<glyph glyph-name="mail" unicode="&#xe805;" d="M142 558l25-37 308 208 0 0c8 4 17 9 25 9 8 0 17-5 25-9l0 0 308-208 0 0 0 0v-463c0-25-16-41-41-41h-584c-25 0-41 16-41 41v463l0 0h0l0 0 0 0-25 37-21 34c-25-17-38-42-38-71l0 0 0 0v-463c0-71 55-125 125-125h584c71 0 125 54 125 125v463c0 29-13 54-38 71l-308 208 0 0c-21 13-46 21-71 21-25 0-50-8-71-21l-308-208 0 0 21-34z m8-120l350-175 350 175c21 8 29 33 17 54-9 21-34 29-54 16l-313-154-317 159c-16 8-41 0-54-21-8-17 0-42 21-54l0 0z" horiz-adv-x="1000" />

<glyph glyph-name="phone" unicode="&#xe806;" d="M750 850h-500c-71 0-125-54-125-125v-83-42-417-208c0-71 54-125 125-125h500c71 0 125 54 125 125v208 459 83c0 71-54 125-125 125z m42-875c0-25-17-42-42-42h-500c-25 0-42 17-42 42v208h584v-208z m0 292h-584v291h584v-291z m0 375h-584v83c0 25 17 42 42 42h500c25 0 42-17 42-42v-83z m-167 83h-250c-12 0-21-8-21-21s9-21 21-21h250c13 0 21 9 21 21s-8 21-21 21z m-121-604h-29c-8 0-50-33-50-75s58-54 67-54l41 8c9 0 30 21 30 58s-50 63-59 63z" horiz-adv-x="1000" />

<glyph glyph-name="times" unicode="&#xe807;" d="M589 361l207 207a42 42 0 1 1-59 59l-207-207-206 207a42 42 0 0 1-59-59l206-207-206-206a42 42 0 0 1 59-59l206 206 207-206a42 42 0 0 1 59 59l-207 206z" horiz-adv-x="1000" />

<glyph glyph-name="user" unicode="&#xe808;" d="M875 50c0 100-44 194-112 256-25 25-57 44-88 63 0 0 0 0 6 6 44 50 69 119 69 194 0 75-25 144-69 194-43 50-106 87-181 87-75 0-137-37-181-87-44-50-69-119-69-194 0-75 25-144 69-194 0 0 0 0 6-6-31-19-62-38-87-63-69-62-113-156-113-256v-138c0-18 6-31 19-43s25-19 44-19h625c18 0 31 6 43 19s19 25 19 43l0 138 0 0c0 0 0 0 0 0z m-462 406c-19 25-38 69-38 113 0 44 19 87 38 112 25 32 56 44 87 44 31 0 63-12 88-44 18-25 37-68 37-112 0-44-19-88-37-113-25-31-57-43-88-43-31 0-62 12-87 43z m337-481h-500v75c0 63 25 125 75 169 44 44 106 69 175 69 69 0 131-25 175-69 44-44 75-100 75-169v-75z" horiz-adv-x="1000" />

<glyph glyph-name="filter" unicode="&#xe80a;" d="M863 706l-50 38-300-400v-300l0 0 25 0h-25l0 0 25 0h-25 25l-13 25c-6-6-12-13-12-25h25l-13 25 0 0-150-94 0 0 13-25 0 25-13-6 13-25 0 25 0 0 0-32v38l0 0 0-31v31-31l12 25-6 6v-31l12 25 0 0 0 0-12-25 25 12-13 19-12-25 25 12-19-12h25l-6 12-19-12h25v394l-306 406-6 6-44-50 56 38-12-6h12l0 6-12-6h12-12l12-7 0 7h-12l12-7 0 0 0 0-12 7 0-13 12 6-12 7 0-13 0 63v-63h712v13l-12-7c6-6 6-6 12-6v13l-12-7 0 0 0 0 6 7-6 0 0-7 6 7-6 0h6l-6 0 0-7h6l-6 7 50-32-44 44 0 0 0 0 0 0 44-44 50-43 0 0 6 6 6 6c6 19 13 44 13 63 0 18-7 37-13 56l-56-31 56 25c-19 43-62 62-100 62h-712l0 0c-44 0-82-25-100-56l56-31-56 31c-7-19-13-38-13-56 0-19 6-44 19-63l6-6 0-6 275-363 0-350c0-19 6-31 13-50 6-19 25-31 37-38l25 57-31-57c19-6 31-12 50-12l0 0 0 0 0 0c19 0 37 6 50 19l-38 50 32-50 143 93-18 51 31-57c31 19 44 50 44 82l0 0-63 0h63v262l275 369-50 37 50-43-50 43z" horiz-adv-x="938" />
</font>
</defs>
</svg>