<svg xmlns="http://www.w3.org/2000/svg" width="64" height="64" viewBox="0 0 64 64">
    <g fill="none" fill-rule="evenodd">
        <path fill="#D8D8D8" d="M47 4h12v10H47V4zm0 10h12l-3 9h-6l-.789-5.843L47 14z"/>
        <path fill="#353535" d="M49 23h6l-2 2h-2zM47 0l2 4h-2zM50 1h7v3h-7z"/>
        <path stroke="#353535" stroke-width="2" d="M53 25v33a5 5 0 0 1-5 5h-1a5 5 0 0 1-5-5V6a5 5 0 0 0-10 0v52a5 5 0 0 1-10 0V6a5 5 0 0 0-5-5h-1a5 5 0 0 0-5 5v32"/>
        <path fill="#353535" d="M8 38h6v3H8v-3zm0 5h6v2H8v-2zm1-2h4v2H9v-2z"/>
        <path fill="#1C7AAE" d="M8 45h6v5H8z"/>
        <path fill="#353535" d="M9 50h4v1H9z"/>
        <path fill="#1C7AAE" d="M5 39h1l1 5 1 1v5H5z"/>
    </g>
</svg>
