<svg xmlns="http://www.w3.org/2000/svg" width="24" height="24" viewBox="0 0 24 24">
    <g fill="none" fill-rule="evenodd">
        <rect width="16" height="22" x="4" y="1" stroke="#999" stroke-linecap="round" stroke-width="2" rx="2"/>
        <path stroke="#999" stroke-linecap="round" stroke-width="2" d="M4 6h16v9H4z"/>
        <path stroke="#999" stroke-linecap="round" d="M9 3.5h6"/>
        <circle cx="12" cy="19" r="2" fill="#999"/>
    </g>
</svg>
